{
  "properties": [
    {
      "name": "serial.port",
      "type": "java.lang.String",
      "description": "The serial device port to connect."
    },
    {
      "name": "serial.rate",
      "type": "java.lang.String",
      "description": "The serial device baud rate."
    },
    {
      "name": "devices",
      "description": "Serial devices configurations."
    },
    {
      "name": "agent",
      "description": "Agent configurations."
    }
  ]
}